^C:\USERS\EDWIN MANJARREZ\DOCUMENTS\APPDEVELOPEMENT\EDWINSTOWERS\EDWINSTOWERS\PCH.CPP
C:\USERS\EDWIN MANJARREZ\DOCUMENTS\APPDEVELOPEMENT\EDWINSTOWERS\EDWINSTOWERS\DEBUG\EDWINSTOWERS.PCH
C:\USERS\EDWIN MANJARREZ\DOCUMENTS\APPDEVELOPEMENT\EDWINSTOWERS\EDWINSTOWERS\DEBUG\VC142.PDB
C:\USERS\EDWIN MANJARREZ\DOCUMENTS\APPDEVELOPEMENT\EDWINSTOWERS\EDWINSTOWERS\DEBUG\VC142.IDB
C:\USERS\EDWIN MANJARREZ\DOCUMENTS\APPDEVELOPEMENT\EDWINSTOWERS\EDWINSTOWERS\DEBUG\PCH.OBJ
^C:\USERS\EDWIN MANJARREZ\DOCUMENTS\APPDEVELOPEMENT\EDWINSTOWERS\EDWINSTOWERS\EDWINSTOWERS.CPP|C:\USERS\EDWIN MANJARREZ\DOCUMENTS\APPDEVELOPEMENT\EDWINSTOWERS\EDWINSTOWERS\EDWINSTOWERSDLG.CPP
C:\USERS\EDWIN MANJARREZ\DOCUMENTS\APPDEVELOPEMENT\EDWINSTOWERS\EDWINSTOWERS\DEBUG\VC142.PDB
C:\USERS\EDWIN MANJARREZ\DOCUMENTS\APPDEVELOPEMENT\EDWINSTOWERS\EDWINSTOWERS\DEBUG\VC142.IDB
C:\USERS\EDWIN MANJARREZ\DOCUMENTS\APPDEVELOPEMENT\EDWINSTOWERS\EDWINSTOWERS\DEBUG\EDWINSTOWERS.OBJ
^C:\USERS\EDWIN MANJARREZ\DOCUMENTS\APPDEVELOPEMENT\EDWINSTOWERS\EDWINSTOWERS\EDWINSTOWERS.CPP
C:\USERS\EDWIN MANJARREZ\DOCUMENTS\APPDEVELOPEMENT\EDWINSTOWERS\EDWINSTOWERS\DEBUG\EDWINSTOWERS.OBJ
^C:\USERS\EDWIN MANJARREZ\DOCUMENTS\APPDEVELOPEMENT\EDWINSTOWERS\EDWINSTOWERS\EDWINSTOWERSDLG.CPP
C:\USERS\EDWIN MANJARREZ\DOCUMENTS\APPDEVELOPEMENT\EDWINSTOWERS\EDWINSTOWERS\DEBUG\VC142.PDB
C:\USERS\EDWIN MANJARREZ\DOCUMENTS\APPDEVELOPEMENT\EDWINSTOWERS\EDWINSTOWERS\DEBUG\VC142.IDB
C:\USERS\EDWIN MANJARREZ\DOCUMENTS\APPDEVELOPEMENT\EDWINSTOWERS\EDWINSTOWERS\DEBUG\EDWINSTOWERSDLG.OBJ
