^C:\USERS\EDWIN MANJARREZ\DOCUMENTS\APPDEVELOPEMENT\EDWINSTOWERS\EDWINSTOWERS\X64\DEBUG\EDWINSTOWERS.OBJ|C:\USERS\EDWIN MANJARREZ\DOCUMENTS\APPDEVELOPEMENT\EDWINSTOWERS\EDWINSTOWERS\X64\DEBUG\EDWINSTOWERS.RES|C:\USERS\EDWIN MANJARREZ\DOCUMENTS\APPDEVELOPEMENT\EDWINSTOWERS\EDWINSTOWERS\X64\DEBUG\EDWINSTOWERSDLG.OBJ|C:\USERS\EDWIN MANJARREZ\DOCUMENTS\APPDEVELOPEMENT\EDWINSTOWERS\EDWINSTOWERS\X64\DEBUG\PCH.OBJ
C:\USERS\EDWIN MANJARREZ\DOCUMENTS\APPDEVELOPEMENT\EDWINSTOWERS\EDWINSTOWERS\X64\DEBUG\EDWINSTOWERS.RES
C:\USERS\EDWIN MANJARREZ\DOCUMENTS\APPDEVELOPEMENT\EDWINSTOWERS\EDWINSTOWERS\X64\DEBUG\EDWINSTOWERS.OBJ
C:\USERS\EDWIN MANJARREZ\DOCUMENTS\APPDEVELOPEMENT\EDWINSTOWERS\EDWINSTOWERS\X64\DEBUG\EDWINSTOWERSDLG.OBJ
C:\USERS\EDWIN MANJARREZ\DOCUMENTS\APPDEVELOPEMENT\EDWINSTOWERS\EDWINSTOWERS\X64\DEBUG\PCH.OBJ
C:\PROGRAM FILES (X86)\MICROSOFT VISUAL STUDIO\2019\COMMUNITY\VC\TOOLS\MSVC\14.22.27905\INCLUDE\MANIFEST\DPIAWARE.MANIFEST
C:\WINDOWS\GLOBALIZATION\SORTING\SORTDEFAULT.NLS
C:\PROGRAM FILES (X86)\MICROSOFT VISUAL STUDIO\2019\COMMUNITY\VC\TOOLS\MSVC\14.22.27905\ATLMFC\LIB\X64\MFC140UD.LIB
C:\PROGRAM FILES (X86)\MICROSOFT VISUAL STUDIO\2019\COMMUNITY\VC\TOOLS\MSVC\14.22.27905\ATLMFC\LIB\X64\MFCS140UD.LIB
C:\PROGRAM FILES (X86)\MICROSOFT VISUAL STUDIO\2019\COMMUNITY\VC\TOOLS\MSVC\14.22.27905\LIB\X64\MSVCRTD.LIB
C:\PROGRAM FILES (X86)\WINDOWS KITS\10\LIB\10.0.18362.0\UM\X64\KERNEL32.LIB
C:\PROGRAM FILES (X86)\WINDOWS KITS\10\LIB\10.0.18362.0\UM\X64\USER32.LIB
C:\PROGRAM FILES (X86)\WINDOWS KITS\10\LIB\10.0.18362.0\UM\X64\GDI32.LIB
C:\PROGRAM FILES (X86)\WINDOWS KITS\10\LIB\10.0.18362.0\UM\X64\MSIMG32.LIB
C:\PROGRAM FILES (X86)\WINDOWS KITS\10\LIB\10.0.18362.0\UM\X64\COMDLG32.LIB
C:\PROGRAM FILES (X86)\WINDOWS KITS\10\LIB\10.0.18362.0\UM\X64\WINSPOOL.LIB
C:\PROGRAM FILES (X86)\WINDOWS KITS\10\LIB\10.0.18362.0\UM\X64\ADVAPI32.LIB
C:\PROGRAM FILES (X86)\WINDOWS KITS\10\LIB\10.0.18362.0\UM\X64\SHELL32.LIB
C:\PROGRAM FILES (X86)\WINDOWS KITS\10\LIB\10.0.18362.0\UM\X64\COMCTL32.LIB
C:\PROGRAM FILES (X86)\WINDOWS KITS\10\LIB\10.0.18362.0\UM\X64\SHLWAPI.LIB
C:\PROGRAM FILES (X86)\WINDOWS KITS\10\LIB\10.0.18362.0\UM\X64\UXTHEME.LIB
C:\PROGRAM FILES (X86)\WINDOWS KITS\10\LIB\10.0.18362.0\UM\X64\WINDOWSCODECS.LIB
C:\PROGRAM FILES (X86)\WINDOWS KITS\10\LIB\10.0.18362.0\UM\X64\UUID.LIB
C:\PROGRAM FILES (X86)\MICROSOFT VISUAL STUDIO\2019\COMMUNITY\VC\TOOLS\MSVC\14.22.27905\ATLMFC\LIB\X64\ATLS.LIB
C:\PROGRAM FILES (X86)\WINDOWS KITS\10\LIB\10.0.18362.0\UM\X64\OLE32.LIB
C:\PROGRAM FILES (X86)\WINDOWS KITS\10\LIB\10.0.18362.0\UM\X64\OLEAUT32.LIB
C:\PROGRAM FILES (X86)\WINDOWS KITS\10\LIB\10.0.18362.0\UM\X64\OLEDLG.LIB
C:\PROGRAM FILES (X86)\WINDOWS KITS\10\LIB\10.0.18362.0\UM\X64\URLMON.LIB
C:\PROGRAM FILES (X86)\WINDOWS KITS\10\LIB\10.0.18362.0\UM\X64\GDIPLUS.LIB
C:\PROGRAM FILES (X86)\MICROSOFT VISUAL STUDIO\2019\COMMUNITY\VC\TOOLS\MSVC\14.22.27905\LIB\X64\COMSUPPWD.LIB
C:\PROGRAM FILES (X86)\MICROSOFT VISUAL STUDIO\2019\COMMUNITY\VC\TOOLS\MSVC\14.22.27905\LIB\X64\MSVCPRTD.LIB
C:\PROGRAM FILES (X86)\MICROSOFT VISUAL STUDIO\2019\COMMUNITY\VC\TOOLS\MSVC\14.22.27905\LIB\X64\OLDNAMES.LIB
C:\PROGRAM FILES (X86)\WINDOWS KITS\10\LIB\10.0.18362.0\UM\X64\WININET.LIB
C:\PROGRAM FILES (X86)\WINDOWS KITS\10\LIB\10.0.18362.0\UM\X64\WS2_32.LIB
C:\PROGRAM FILES (X86)\WINDOWS KITS\10\LIB\10.0.18362.0\UM\X64\MSWSOCK.LIB
C:\PROGRAM FILES (X86)\MICROSOFT VISUAL STUDIO\2019\COMMUNITY\VC\TOOLS\MSVC\14.22.27905\LIB\X64\VCRUNTIMED.LIB
C:\PROGRAM FILES (X86)\WINDOWS KITS\10\LIB\10.0.18362.0\UCRT\X64\UCRTD.LIB
C:\PROGRAM FILES (X86)\MICROSOFT VISUAL STUDIO\2019\COMMUNITY\VC\TOOLS\MSVC\14.22.27905\BIN\HOSTX86\X64\CVTRES.EXE
C:\WINDOWS\SYSTEM32\TZRES.DLL
