^C:\USERS\EDWIN MANJARREZ\DOCUMENTS\APPDEVELOPEMENT\APPDEVELOPEMENT\EDWINSFREECELL\PCH.CPP
C:\USERS\EDWIN MANJARREZ\DOCUMENTS\APPDEVELOPEMENT\APPDEVELOPEMENT\EDWINSFREECELL\DEBUG\EDWINSFREECELL.PCH
C:\USERS\EDWIN MANJARREZ\DOCUMENTS\APPDEVELOPEMENT\APPDEVELOPEMENT\EDWINSFREECELL\DEBUG\VC142.PDB
C:\USERS\EDWIN MANJARREZ\DOCUMENTS\APPDEVELOPEMENT\APPDEVELOPEMENT\EDWINSFREECELL\DEBUG\VC142.IDB
C:\USERS\EDWIN MANJARREZ\DOCUMENTS\APPDEVELOPEMENT\APPDEVELOPEMENT\EDWINSFREECELL\DEBUG\PCH.OBJ
^C:\USERS\EDWIN MANJARREZ\DOCUMENTS\APPDEVELOPEMENT\APPDEVELOPEMENT\EDWINSFREECELL\CELL.CPP|C:\USERS\EDWIN MANJARREZ\DOCUMENTS\APPDEVELOPEMENT\APPDEVELOPEMENT\EDWINSFREECELL\EDWINSFREECELL.CPP|C:\USERS\EDWIN MANJARREZ\DOCUMENTS\APPDEVELOPEMENT\APPDEVELOPEMENT\EDWINSFREECELL\EDWINSFREECELLDLG.CPP|C:\USERS\EDWIN MANJARREZ\DOCUMENTS\APPDEVELOPEMENT\APPDEVELOPEMENT\EDWINSFREECELL\WINDOWSCARDS.CPP
C:\USERS\EDWIN MANJARREZ\DOCUMENTS\APPDEVELOPEMENT\APPDEVELOPEMENT\EDWINSFREECELL\DEBUG\VC142.PDB
C:\USERS\EDWIN MANJARREZ\DOCUMENTS\APPDEVELOPEMENT\APPDEVELOPEMENT\EDWINSFREECELL\DEBUG\VC142.IDB
C:\USERS\EDWIN MANJARREZ\DOCUMENTS\APPDEVELOPEMENT\APPDEVELOPEMENT\EDWINSFREECELL\DEBUG\WINDOWSCARDS.OBJ
C:\USERS\EDWIN MANJARREZ\DOCUMENTS\APPDEVELOPEMENT\APPDEVELOPEMENT\EDWINSFREECELL\DEBUG\EDWINSFREECELLDLG.OBJ
C:\USERS\EDWIN MANJARREZ\DOCUMENTS\APPDEVELOPEMENT\APPDEVELOPEMENT\EDWINSFREECELL\DEBUG\EDWINSFREECELL.OBJ
C:\USERS\EDWIN MANJARREZ\DOCUMENTS\APPDEVELOPEMENT\APPDEVELOPEMENT\EDWINSFREECELL\DEBUG\CELL.OBJ
^C:\USERS\EDWIN MANJARREZ\DOCUMENTS\APPDEVELOPEMENT\APPDEVELOPEMENT\EDWINSFREECELL\CELL.CPP
C:\USERS\EDWIN MANJARREZ\DOCUMENTS\APPDEVELOPEMENT\APPDEVELOPEMENT\EDWINSFREECELL\DEBUG\VC142.PDB
^C:\USERS\EDWIN MANJARREZ\DOCUMENTS\APPDEVELOPEMENT\APPDEVELOPEMENT\EDWINSFREECELL\EDWINSFREECELL.CPP
C:\USERS\EDWIN MANJARREZ\DOCUMENTS\APPDEVELOPEMENT\APPDEVELOPEMENT\EDWINSFREECELL\DEBUG\VC142.PDB
^C:\USERS\EDWIN MANJARREZ\DOCUMENTS\APPDEVELOPEMENT\APPDEVELOPEMENT\EDWINSFREECELL\WINDOWSCARDS.CPP
C:\USERS\EDWIN MANJARREZ\DOCUMENTS\APPDEVELOPEMENT\APPDEVELOPEMENT\EDWINSFREECELL\DEBUG\VC142.PDB
^C:\USERS\EDWIN MANJARREZ\DOCUMENTS\APPDEVELOPEMENT\APPDEVELOPEMENT\EDWINSFREECELL\EDWINSFREECELLDLG.CPP
C:\USERS\EDWIN MANJARREZ\DOCUMENTS\APPDEVELOPEMENT\APPDEVELOPEMENT\EDWINSFREECELL\DEBUG\VC142.PDB
C:\USERS\EDWIN MANJARREZ\DOCUMENTS\APPDEVELOPEMENT\APPDEVELOPEMENT\EDWINSFREECELL\DEBUG\VC142.IDB
C:\USERS\EDWIN MANJARREZ\DOCUMENTS\APPDEVELOPEMENT\APPDEVELOPEMENT\EDWINSFREECELL\DEBUG\EDWINSFREECELLDLG.OBJ
